%YAML 1.1
%TAG !u! tag:unity3d.com,2011:
--- !u!114 &11400000
MonoBehaviour:
  m_ObjectHideFlags: 0
  m_CorrespondingSourceObject: {fileID: 0}
  m_PrefabInstance: {fileID: 0}
  m_PrefabAsset: {fileID: 0}
  m_GameObject: {fileID: 0}
  m_Enabled: 1
  m_EditorHideFlags: 0
  m_Script: {fileID: 11500000, guid: c4356ce3527f9fa419d42fce1d2c9e45, type: 3}
  m_Name: C_13 Techno Infusion
  m_EditorClassIdentifier: 
  name: Tech Infusion
  cardArchetypes: 0200000001000000
  cardRarity: 1
  artwork: {fileID: 21300000, guid: 8b8a65d8e2be971408c399a065207349, type: 3}
  triggers:
  - trigger: 0
    life: 1
    effectUsed: 0
    effects:
    - {fileID: 11400000, guid: c2f6f9ed128ca354380c4708f7572c70, type: 2}
    description: 
    canActivate: 0
  - trigger: 0
    life: 2
    effectUsed: 0
    effects:
    - {fileID: 11400000, guid: e302691a4b5b3894295b5b403ff1ec92, type: 2}
    description: 
    canActivate: 0
  cardLife: 0
  cardDescription: 'Weapon: All of your weapons scale on Tech.

    Armor: Gain more Neural Resistance and Tech.'
