%YAML 1.1
%TAG !u! tag:unity3d.com,2011:
--- !u!114 &11400000
MonoBehaviour:
  m_ObjectHideFlags: 0
  m_CorrespondingSourceObject: {fileID: 0}
  m_PrefabInstance: {fileID: 0}
  m_PrefabAsset: {fileID: 0}
  m_GameObject: {fileID: 0}
  m_Enabled: 1
  m_EditorHideFlags: 0
  m_Script: {fileID: 11500000, guid: 5fa4362e69ca8944c8f42fe0c4b931c7, type: 3}
  m_Name: C_59 1
  m_EditorClassIdentifier: 
  target: {fileID: 0}
  enemy: {fileID: 0}
  duration: 0
  hasBeenUsed: 0
  t: 10
  perc: 30
