%YAML 1.1
%TAG !u! tag:unity3d.com,2011:
--- !u!114 &11400000
MonoBehaviour:
  m_ObjectHideFlags: 0
  m_CorrespondingSourceObject: {fileID: 0}
  m_PrefabInstance: {fileID: 0}
  m_PrefabAsset: {fileID: 0}
  m_GameObject: {fileID: 0}
  m_Enabled: 1
  m_EditorHideFlags: 0
  m_Script: {fileID: 11500000, guid: b9268af50cd750040afeef9f6c3c73b6, type: 3}
  m_Name: New Throw
  m_EditorClassIdentifier: 
  target: {fileID: 0}
  enemy: {fileID: 0}
  duration: 0
  hasBeenUsed: 0
  bulletsNum: 1
  angle: 25
  gravity: 50
  range: 4
  bullet: {fileID: 8017765790713709780, guid: bc9ee89019d0df24f931a2438993f84e, type: 3}
