%YAML 1.1
%TAG !u! tag:unity3d.com,2011:
--- !u!114 &11400000
MonoBehaviour:
  m_ObjectHideFlags: 0
  m_CorrespondingSourceObject: {fileID: 0}
  m_PrefabInstance: {fileID: 0}
  m_PrefabAsset: {fileID: 0}
  m_GameObject: {fileID: 0}
  m_Enabled: 1
  m_EditorHideFlags: 0
  m_Script: {fileID: 11500000, guid: c4356ce3527f9fa419d42fce1d2c9e45, type: 3}
  m_Name: General Card 1
  m_EditorClassIdentifier: 
  name: Fire
  cardArchetypes: 0200000001000000
  cardRarity: 0
  artwork: {fileID: 21300000, guid: 35a434db6d1809141ad2e096e6cb1cf6, type: 3}
  triggers:
  - trigger: 0
    life: 0
    effectUsed: 0
    effects:
    - {fileID: 11400000, guid: a7da4eba9cb3b6e4cb35a850330dff2c, type: 2}
    description: 
    canActivate: 0
  - trigger: 0
    life: 0
    effectUsed: 0
    effects:
    - {fileID: 11400000, guid: a7da4eba9cb3b6e4cb35a850330dff2c, type: 2}
    description: 
    canActivate: 0
  cardLife: 2
