%YAML 1.1
%TAG !u! tag:unity3d.com,2011:
--- !u!114 &11400000
MonoBehaviour:
  m_ObjectHideFlags: 0
  m_CorrespondingSourceObject: {fileID: 0}
  m_PrefabInstance: {fileID: 0}
  m_PrefabAsset: {fileID: 0}
  m_GameObject: {fileID: 0}
  m_Enabled: 1
  m_EditorHideFlags: 0
  m_Script: {fileID: 11500000, guid: 63fb186eace815c43a252b3fbd6d9d66, type: 3}
  m_Name: A_12 DELETE
  m_EditorClassIdentifier: 
  name: Recycle Bin
  type: 0
  description: 
  trigger:
    trigger: 13
    life: 0
    effectUsed: 0
    effects:
    - {fileID: 11400000, guid: 773fd6e4cf0109844b6b8b12c28bab12, type: 2}
    description: 
    canActivate: 0
  abilityPointsNeeded: 12
  icon: {fileID: 21300000, guid: a4a4cedc3da259f41a0fe783769f1c8c, type: 3}
