%YAML 1.1
%TAG !u! tag:unity3d.com,2011:
--- !u!114 &11400000
MonoBehaviour:
  m_ObjectHideFlags: 0
  m_CorrespondingSourceObject: {fileID: 0}
  m_PrefabInstance: {fileID: 0}
  m_PrefabAsset: {fileID: 0}
  m_GameObject: {fileID: 0}
  m_Enabled: 1
  m_EditorHideFlags: 0
  m_Script: {fileID: 11500000, guid: 63fb186eace815c43a252b3fbd6d9d66, type: 3}
  m_Name: Blood
  m_EditorClassIdentifier: 
  name: Blood
  type: 2
  description: Strength +4
  trigger:
    trigger: 0
    life: 0
    effectUsed: 0
    effects:
    - {fileID: 11400000, guid: cce482e2f7a2be24e837f67c79e845e3, type: 2}
    description: 
    canActivate: 0
  abilityPointsNeeded: 0
  icon: {fileID: 21300000, guid: 3eb864ffcdd258a45b5c9cb9fde2e950, type: 3}
