%YAML 1.1
%TAG !u! tag:unity3d.com,2011:
--- !u!114 &11400000
MonoBehaviour:
  m_ObjectHideFlags: 0
  m_CorrespondingSourceObject: {fileID: 0}
  m_PrefabInstance: {fileID: 0}
  m_PrefabAsset: {fileID: 0}
  m_GameObject: {fileID: 0}
  m_Enabled: 1
  m_EditorHideFlags: 0
  m_Script: {fileID: 11500000, guid: 6d31081173142af4c8c0db4ac0d88b4e, type: 3}
  m_Name: AttributesModifier 2
  m_EditorClassIdentifier: 
  target: {fileID: 0}
  enemy: {fileID: 0}
  description: ///
  duration: 0
  strenghtModifier: 1
  intellectModifier: 1
  agilityModifier: 1
  neuralResistenceModifier: 0
  luckModifier: 1
  neuralHealthModifier: 3
