%YAML 1.1
%TAG !u! tag:unity3d.com,2011:
--- !u!114 &11400000
MonoBehaviour:
  m_ObjectHideFlags: 0
  m_CorrespondingSourceObject: {fileID: 0}
  m_PrefabInstance: {fileID: 0}
  m_PrefabAsset: {fileID: 0}
  m_GameObject: {fileID: 0}
  m_Enabled: 1
  m_EditorHideFlags: 0
  m_Script: {fileID: 11500000, guid: e63c95b6720e34f4a81963f6b42a9644, type: 3}
  m_Name: Double Jump
  m_EditorClassIdentifier: 
  target: {fileID: 0}
  enemy: {fileID: 0}
  description: 
  duration: 5
