%YAML 1.1
%TAG !u! tag:unity3d.com,2011:
--- !u!114 &11400000
MonoBehaviour:
  m_ObjectHideFlags: 0
  m_CorrespondingSourceObject: {fileID: 0}
  m_PrefabInstance: {fileID: 0}
  m_PrefabAsset: {fileID: 0}
  m_GameObject: {fileID: 0}
  m_Enabled: 1
  m_EditorHideFlags: 0
  m_Script: {fileID: 11500000, guid: 63fb186eace815c43a252b3fbd6d9d66, type: 3}
  m_Name: Scorn
  m_EditorClassIdentifier: 
  name: Scorn
  type: 2
  description: Neural Health +8
  trigger:
    trigger: 0
    life: 0
    effectUsed: 0
    effects:
    - {fileID: 11400000, guid: 01f33a2c83d9ac14098a07bf1c315d78, type: 2}
    description: 
    canActivate: 0
  abilityPointsNeeded: 0
  icon: {fileID: 21300000, guid: 4d3de44f22fa37048ac7016d5c5d70ad, type: 3}
