%YAML 1.1
%TAG !u! tag:unity3d.com,2011:
--- !u!114 &11400000
MonoBehaviour:
  m_ObjectHideFlags: 0
  m_CorrespondingSourceObject: {fileID: 0}
  m_PrefabInstance: {fileID: 0}
  m_PrefabAsset: {fileID: 0}
  m_GameObject: {fileID: 0}
  m_Enabled: 1
  m_EditorHideFlags: 0
  m_Script: {fileID: 11500000, guid: 63fb186eace815c43a252b3fbd6d9d66, type: 3}
  m_Name: Shockwave
  m_EditorClassIdentifier: 
  name: Shockwave
  type: 1
  description: Create a shockwave that pushes enemies away
  trigger:
    trigger: 16
    life: 0
    effectUsed: 0
    effects:
    - {fileID: 11400000, guid: 34520f3fdf9754148884dcbd5addf37a, type: 2}
    description: 
    canActivate: 0
  abilityPointsNeeded: 6
  icon: {fileID: 21300000, guid: 5c054cd6678262840a4424713a48706f, type: 3}
