%YAML 1.1
%TAG !u! tag:unity3d.com,2011:
--- !u!114 &11400000
MonoBehaviour:
  m_ObjectHideFlags: 0
  m_CorrespondingSourceObject: {fileID: 0}
  m_PrefabInstance: {fileID: 0}
  m_PrefabAsset: {fileID: 0}
  m_GameObject: {fileID: 0}
  m_Enabled: 1
  m_EditorHideFlags: 0
  m_Script: {fileID: 11500000, guid: d3914422e845393489d4617e0bd8e05b, type: 3}
  m_Name: Pool 3
  m_EditorClassIdentifier: 
  rooms:
  - {fileID: 6532600798458520209, guid: 7444b4068edcf8e49ae7c9aa488ddfc2, type: 3}
  - {fileID: 8520430408174226321, guid: 901383ecb82c8dc40901fe4393b642f8, type: 3}
  - {fileID: 5012660379782259025, guid: 04dc0d51aea9f4d448f793b0dfcb068c, type: 3}
  - {fileID: 6147168693837953345, guid: c44d800ca590d9b4c9e0b762fd6c935b, type: 3}
  - {fileID: 4761700841444202600, guid: 6928d34b416ac3246be2e749958f4f5b, type: 3}
  - {fileID: 1507922040498059343, guid: c1338115ee037c948a4f362204bf10f3, type: 3}
  - {fileID: 3356942264563146909, guid: 94a1f3a73da14824dbf2413a16303a06, type: 3}
  - {fileID: 9058213174448856740, guid: 5bf0807bd1d688e4cab90eff5ae3fa69, type: 3}
  - {fileID: 7293294870534743541, guid: 1f709ad786fd18b47a4726d90832d7d8, type: 3}
  - {fileID: 1172116245861857703, guid: c51cd3878cf7c7341bef834e6d5445d9, type: 3}
  - {fileID: 3075403508865786383, guid: 9ebde3f056bf18846bbc0d5bf060606b, type: 3}
  - {fileID: 1078421129612468288, guid: 6d2986582bfd1764882ca58ff8582fcb, type: 3}
  - {fileID: 5839215877131335651, guid: aef465133389ffa488c65f38e18e87ed, type: 3}
  - {fileID: 3657620126279910845, guid: e905cb627f27bfe498ab17fe5b7fb085, type: 3}
  - {fileID: 3215390499748037583, guid: 4539e500531e9c6489116aafba1cfcfd, type: 3}
  - {fileID: 949222119683690384, guid: 3c7b75eebe05c4a4580596af88aa8300, type: 3}
  - {fileID: 8309177296572616159, guid: 70a8da595359e4c4d9b93a3359eb978a, type: 3}
  - {fileID: 4599662532789126891, guid: aa7ff0ca5b0a3214c898ebfe2fb7fb45, type: 3}
  - {fileID: 4956771234544801487, guid: e7523915283ab5643affd54bfe07d730, type: 3}
  - {fileID: 2084910913025932818, guid: c6e232ecc7b19b14b8ec46e1c1da99e3, type: 3}
