%YAML 1.1
%TAG !u! tag:unity3d.com,2011:
--- !u!114 &11400000
MonoBehaviour:
  m_ObjectHideFlags: 0
  m_CorrespondingSourceObject: {fileID: 0}
  m_PrefabInstance: {fileID: 0}
  m_PrefabAsset: {fileID: 0}
  m_GameObject: {fileID: 0}
  m_Enabled: 1
  m_EditorHideFlags: 0
  m_Script: {fileID: 11500000, guid: c33805e746a84084884eeccef682501e, type: 3}
  m_Name: Turret
  m_EditorClassIdentifier: 
  speed: 0
  patrolSpeed: 0
  attackRange: 10
  visionRange: 10
  maxAggroTime: 0
  attackBonus: 5
  speedBonus: 5
  dotTime: 5
  dotDamage: 30
